[
    {
      "id": 0,
      "name": "Handrdoll 1",
      "price": 6000,
      "description": "Camarón furai, salmón, cebollín envuelto en palta",
      "image":"https://assets.niusushi.cl/production/images/cccc927e-0e20-4564-9e67-2a38588b8695/medium/Crab_Ahumadooo.png?1618418392"
    },
    {
      "id": 1,
      "name": "Handrollaa 1",
      "price": 6000,
      "description": "Camarón furai, salmón, cebollín envuelto en palta",
      "image":"https://assets.niusushi.cl/production/images/cccc927e-0e20-4564-9e67-2a38588b8695/medium/Crab_Ahumadooo.png?1618418392"
    },
    {
      "id": 2,
      "name": "Handroll 411",
      "price": 6000,
      "description": "Camarón furai, salmón, cebollín envuelto en palta",
      "image":"https://assets.niusushi.cl/production/images/cccc927e-0e20-4564-9e67-2a38588b8695/medium/Crab_Ahumadooo.png?1618418392"
    },
    {
      "id": 3,
      "name": "Handroll 1124",
      "price": 6000,
      "description": "Camarón furai, salmón, cebollín envuelto en palta",
      "image":"https://assets.niusushi.cl/production/images/cccc927e-0e20-4564-9e67-2a38588b8695/medium/Crab_Ahumadooo.png?1618418392"
    },
    {
      "id": 4,
      "name": "Handroll 142",
      "price": 6000,
      "description": "Camarón furai, salmón, cebollín envuelto en palta",
      "image":"https://assets.niusushi.cl/production/images/cccc927e-0e20-4564-9e67-2a38588b8695/medium/Crab_Ahumadooo.png?1618418392"
    },
    {
      "id": 5,
      "name": "Handroll 13",
      "price": 6000,
      "description": "Camarón furai, salmón, cebollín envuelto en palta",
      "image":"https://assets.niusushi.cl/production/images/cccc927e-0e20-4564-9e67-2a38588b8695/medium/Crab_Ahumadooo.png?1618418392"
    },
    {
      "id": 6,
      "name": "Handroll 13",
      "price": 6000,
      "description": "Camarón furai, salmón, cebollín envuelto en palta",
      "image":"https://assets.niusushi.cl/production/images/cccc927e-0e20-4564-9e67-2a38588b8695/medium/Crab_Ahumadooo.png?1618418392"
    },
    {
      "id": 7,
      "name": "Handrolla 13",
      "price": 60200,
      "description": "Camarón furai, salmón, cebollín envuelto en palta",
      "image":"https://assets.niusushi.cl/production/images/cccc927e-0e20-4564-9e67-2a38588b8695/medium/Crab_Ahumadooo.png?1618418392"
    },
    {
      "id": 8,
      "name": "Handroll 13",
      "price": 60300,
      "description": "Camarón furai, salmón, cebollín envuelto en palta",
      "image":"https://assets.niusushi.cl/production/images/cccc927e-0e20-4564-9e67-2a38588b8695/medium/Crab_Ahumadooo.png?1618418392"
    }
]