[{
    "id":0,
    "name":"BruDSce Wayne",
    "email":"correo123@gmail.com",
    "rut":"2038201281SD-1",
    "password":"clavAe123",
    "gender":"si,porfaSDvor",
    "address":"calle falsa,123",
    "cellphone":"+56975897934"
},
{
    "id":1,
    "name":"Bruce SAAAAA",
    "email":"coSSSrreo123@gmail.com",
    "rut":"2038201281-1",
    "password":"clave123",
    "gender":"si,porfavor",
    "address":"calle falsa,123",
    "cellphone":"+56975897934"
},
{
    "id":2,
    "name":"ASD Wayne",
    "email":"correo123@gmail.com",
    "rut":"2038201281-1",
    "password":"clave123",
    "gender":"si,porfavor",
    "address":"calle falsa,123",
    "cellphone":"+56975897934"
},
{
    "id":3,
    "name":"SDAS Wayne",
    "email":"correo123@gmail.com",
    "rut":"2038201281-1",
    "password":"clave123",
    "gender":"si,porfavor",
    "address":"calle falsa,123",
    "cellphone":"+56975897934"
},
{   "id":4,
    "name":"BNATM,AN Wayne",
    "email":"correo123@gmail.com",
    "rut":"2038201281-1",
    "password":"clave123",
    "gender":"si,porfavor",
    "address":"calle falsa,123",
    "cellphone":"+56975897934"
},
{
    "id":5,
    "name":"BrFASFuce ASDASD",
    "email":"correo123@gmail.com",
    "rut":"2038201281-1",
    "password":"clave123",
    "gender":"si,porfavor",
    "address":"calle falsa,123",
    "cellphone":"+56975897934"
}
]